…
    ## # A tibble: 7 x 2
    ##   source       total
    ##   <chr>        <int>
    ## 1 iPhone        5831
    ## 2 MediaStudio   4278
    ## 3 Periscope     1071
    ## 4 TweetDeck     5932
    ## 5 VITAppforiOS    23
    ## 6 WebApp        2386
    ## 7 WebClient    24155

    ## Joining, by = "source"

    ## # A tibble: 12,465 x 6
    ##    source       word               n     tf   idf tf_idf
    ##    <chr>        <chr>          <int>  <dbl> <dbl>  <dbl>
    ##  1 VITAppforiOS #demdebate2        1 0.0435 0.560 0.0243
    ##  2 VITAppforiOS complex            1 0.0435 0.560 0.0243
    ##  3 VITAppforiOS don                1 0.0435 0.560 0.0243
    ##  4 VITAppforiOS donation           1 0.0435 0.336 0.0146
    ##  5 VITAppforiOS finally            1 0.0435 0.336 0.0146
    ##  6 VITAppforiOS funding            1 0.0435 0.336 0.0146
    ##  7 VITAppforiOS guts               1 0.0435 0.336 0.0146
    ##  8 VITAppforiOS industrial         1 0.0435 0.336 0.0146
    ##  9 VITAppforiOS military           1 0.0435 0.336 0.0146
    ## 10 iPhone       @berniesanders   119 0.0204 0.560 0.0114
    ## # ... with 12,455 more rows
…
## Sentiments per source

    ## # A tibble: 3,102 x 3
    ##    status_id           source    total_words
    ##    <chr>               <chr>           <int>
    ##  1 1026931745957052417 WebClient       24155
    ##  2 1026931885048516609 WebClient       24155
    ##  3 1026932172253483013 WebClient       24155
    ##  4 1026942223542378497 WebClient       24155
    ##  5 1027032223604793344 WebClient       24155
    ##  6 1027355179593728000 WebClient       24155
    ##  7 1027359589321388035 WebClient       24155
    ##  8 1027359911070654465 WebClient       24155
    ##  9 1027361685357637635 WebClient       24155
    ## 10 1027388870093090816 WebClient       24155
    ## # ... with 3,092 more rows
…
