…
    ## # A tibble: 7 x 2
    ##   source       total
    ##   <chr>        <int>
    ## 1 iPhone        6343
    ## 2 MediaStudio   4504
    ## 3 Periscope     1291
    ## 4 TweetDeck     6313
    ## 5 VITAppforiOS    23
    ## 6 WebApp        4027
    ## 7 WebClient    21409

    ## Joining, by = "source"

    ## # A tibble: 13,057 x 6
    ##    source       word               n     tf   idf  tf_idf
    ##    <chr>        <chr>          <int>  <dbl> <dbl>   <dbl>
    ##  1 VITAppforiOS #demdebate2        1 0.0435 0.560 0.0243 
    ##  2 VITAppforiOS don                1 0.0435 0.336 0.0146 
    ##  3 VITAppforiOS donation           1 0.0435 0.336 0.0146 
    ##  4 VITAppforiOS funding            1 0.0435 0.336 0.0146 
    ##  5 VITAppforiOS guts               1 0.0435 0.336 0.0146 
    ##  6 iPhone       @berniesanders   131 0.0207 0.560 0.0116 
    ##  7 Periscope    join              66 0.0511 0.154 0.00788
    ##  8 TweetDeck    @berniesanders    81 0.0128 0.560 0.00718
    ##  9 WebApp       @berniesanders    51 0.0127 0.560 0.00709
    ## 10 VITAppforiOS complex            1 0.0435 0.154 0.00670
    ## # ... with 13,047 more rows
…
## Sentiments per source

    ## # A tibble: 3,101 x 3
    ##    status_id           source    total_words
    ##    <chr>               <chr>           <int>
    ##  1 1039662020990324736 WebClient       21409
    ##  2 1039668059735244800 WebClient       21409
    ##  3 1039940620746477570 WebClient       21409
    ##  4 1039986970468990981 WebClient       21409
    ##  5 1039994004342034438 WebClient       21409
    ##  6 1040018040048545810 WebClient       21409
    ##  7 1040029440091271170 WebClient       21409
    ##  8 1040040865782280192 WebClient       21409
    ##  9 1040046073962786821 WebClient       21409
    ## 10 1040226792605401090 WebClient       21409
    ## # ... with 3,091 more rows
…
Compared to favorites, no huge difference except tweets from Periscope
source are less liked.

    ## # A tibble: 3,101 x 3
    ##    status_id           source    total_words
    ##    <chr>               <chr>           <int>
    ##  1 1039668059735244800 WebClient        5174
    ##  2 1042162683825541127 WebClient        5174
    ##  3 1043611807695421442 WebClient        5174
    ##  4 1046939970747940864 WebClient        5174
    ##  5 1047133156921479173 WebClient        5174
    ##  6 1048032131769929728 WebClient        5174
    ##  7 1048388524100276224 WebClient        5174
    ##  8 1048698035172196353 WebClient        5174
    ##  9 1049803479273811968 WebClient        5174
    ## 10 1051593847657119745 WebClient        5174
    ## # ... with 3,091 more rows
…
